331Final
…
fertility <- fertility |> #Cleaning fertility df
  pivot_longer( #pivoting long to make years as rows instead of columns
    cols = starts_with("X"),
    names_to = "year",
    values_to = "babies_per_woman"
  ) |>
  mutate(year = str_remove(year, "X"))  #cleaning year variable

school_fertility_df <- school |> #Joining two data sets
  inner_join(fertility, #Using inner join because we want to compare relationship between the two variables so do not want missing values
             by = c("country", "year"))
fertility

# A tibble: 59,297 × 3
   country     year  babies_per_woman
   <chr>       <chr>            <dbl>
 1 Afghanistan 1800                 7
 2 Afghanistan 1801                 7
 3 Afghanistan 1802                 7
 4 Afghanistan 1803                 7
 5 Afghanistan 1804                 7
 6 Afghanistan 1805                 7
 7 Afghanistan 1806                 7
 8 Afghanistan 1807                 7
 9 Afghanistan 1808                 7
10 Afghanistan 1809                 7
# ℹ 59,287 more rows
…
